Link, Duration, Viewcount, Image_link, Title, localavailability
"http://peertube.net/watch.php?v=zlxpkc3RrUI","02:52","909 views (1 local)","http://i.ytimg.com/vi/zlxpkc3RrUI/0.jpg","Hot mother","1"
"http://peertube.net/watch.php?v=8XkrubkgQKg","02:12","9,366 views (1 local)","http://i.ytimg.com/vi/8XkrubkgQKg/0.jpg","Top 10 Premier League Footballers' Cars","1"
"http://peertube.net/watch.php?v=_0DkuuhvaeQ","02:27","1,849 views (1 local)","http://i.ytimg.com/vi/_0DkuuhvaeQ/0.jpg","BOB DYLAN Knocking on heavens door (Lyrics)","1"
"http://peertube.net/watch.php?v=aadD5iOa2SM","03:58","90 views (1 local)","http://i.ytimg.com/vi/aadD5iOa2SM/0.jpg","Riya Sen in Noukadubi - Bengali Drama Movie","1"
"http://peertube.net/watch.php?v=TRePZTiuVkE","04:28","5 views (1 local)","http://i.ytimg.com/vi/TRePZTiuVkE/0.jpg","'DHAK DHAK KARNE LAGA' - Full VIdeo Song ("Nautanki Saala") *HD* - Feat. Evelyn Sharma","1"
"http://peertube.net/watch.php?v=e_XBYqoiAOI","03:06","6,864 views (1 local)","http://i.ytimg.com/vi/e_XBYqoiAOI/0.jpg","How to Draw a Crystal Ball","1"
"http://peertube.net/watch.php?v=IgIR0mvATlA","00:22","140 views (1 local)","http://i.ytimg.com/vi/IgIR0mvATlA/0.jpg","Hot Boobs Show of Sunny Leone","1"
"http://peertube.net/watch.php?v=8_0Bg5NJ3m4","00:46","628 views (1 local)","http://i.ytimg.com/vi/8_0Bg5NJ3m4/0.jpg","AM I A PROSTITUTE ? (Trailer +18 Only +HD +3D)","1"
"http://peertube.net/watch.php?v=otuoLYCWunw","04:18","147 views (1 local)","http://i.ytimg.com/vi/otuoLYCWunw/0.jpg","GNIT masti.wmv","1"
"http://peertube.net/watch.php?v=D54ZKe1zkVc","04:04","355 views (1 local)","http://i.ytimg.com/vi/D54ZKe1zkVc/0.jpg","NEHRA 6 WICKET AWESOME PERFORMANCE","1"
"http://peertube.net/watch.php?v=e_xarJ9d2-8","04:34","573 views (1 local)","http://i.ytimg.com/vi/e_xarJ9d2-8/0.jpg","Ganesh Vandana dance","1"
"http://peertube.net/watch.php?v=WvhO76b-nPw","01:22","9,561 views (1 local)","http://i.ytimg.com/vi/WvhO76b-nPw/0.jpg","1"
"http://peertube.net/watch.php?v=FoPxAFP1tEw","01:07","509,214 views (1 local)","http://i.ytimg.com/vi/FoPxAFP1tEw/0.jpg","Along With The girls - The corrs","1"
"http://peertube.net/watch.php?v=I5eq5QpnOuc","18:01","11,637 views (1 local)","http://i.ytimg.com/vi/I5eq5QpnOuc/0.jpg","Shreya ghoshal in mazhavil manorama India voice as guest judge part-1","1"
"http://peertube.net/watch.php?v=O6yamtIKb6s","00:08","1,225 views (1 local)","http://i.ytimg.com/vi/O6yamtIKb6s/0.jpg","Hot N Sexy Kareena Kapoor Lesbian Kissing (SHOCKING)","1"
"http://peertube.net/watch.php?v=PXOhvTSM18c","00:11","449 views (1 local)","http://i.ytimg.com/vi/PXOhvTSM18c/0.jpg","Hansika_ Removing her saree showing her navel","1"
"http://peertube.net/watch.php?v=hHTLgy4iw3g","02:26","2,345 views (1 local)","http://i.ytimg.com/vi/hHTLgy4iw3g/0.jpg","Royal Enfield Bullet Restoration Project (Time Lapse)","1"
"http://peertube.net/watch.php?v=WmxdnwyINyw","09:01","238,149 views (1 local)","http://i.ytimg.com/vi/WmxdnwyINyw/0.jpg","Gay love story in the prison.wmv","1"
"http://peertube.net/watch.php?v=ZODQX8j54Eg","09:32","4,770 views (1 local)","http://i.ytimg.com/vi/ZODQX8j54Eg/0.jpg","How to install a tank pad on a motorcycle","1"
"http://peertube.net/watch.php?v=HgGsC0khkZw","14:46","13,458 views (1 local)","http://i.ytimg.com/vi/HgGsC0khkZw/0.jpg","Chanakya Episode 4 Part 1","1"
"http://peertube.net/watch.php?v=HMIl3rKfNtQ","03:06","2,777,080 views (2 local)","http://i.ytimg.com/vi/HMIl3rKfNtQ/0.jpg","DIVA FEVER - X FACTOR 2010 - LOUIS LIKES THEM  - HQ video","1"
"http://peertube.net/watch.php?v=FQV8KhV4r7Y","09:24","10,990 views (1 local)","http://i.ytimg.com/vi/FQV8KhV4r7Y/0.jpg","DID Doubles Grand Finale April 09 '11 - Part - 7","1"
"http://peertube.net/watch.php?v=Yk4cgHcvXJI","03:52","397,349 views (2 local)","http://i.ytimg.com/vi/Yk4cgHcvXJI/0.jpg","Danyl Jonson (X Factor) First Audition - A Little Help from My Friends","1"
"http://peertube.net/watch.php?v=5nuqALOHN1M","06:29","53,742 views (1 local)","http://i.ytimg.com/vi/5nuqALOHN1M/0.jpg","Beginner JavaScript Tutorial - 6 - Functions","1"
"http://peertube.net/watch.php?v=bVoM_AUoNGA","09:24","113,696 views (1 local)","http://i.ytimg.com/vi/bVoM_AUoNGA/0.jpg","Jade Goody and Shilpa Shetty Argument","1"
"http://peertube.net/watch.php?v=vsVYeTLnXZY","03:47","16,241 views (1 local)","http://i.ytimg.com/vi/vsVYeTLnXZY/0.jpg","sexy sexy mujhe log bole remix....karisma kapoor","1"
"http://peertube.net/watch.php?v=MK75BgiqdxM","01:31","342 views (1 local)","http://i.ytimg.com/vi/MK75BgiqdxM/0.jpg","Milk Adultration-ABP Ananda's news impact","1"
"http://peertube.net/watch.php?v=OBzhqGPVVe8","06:41","3,726 views (1 local)","http://i.ytimg.com/vi/OBzhqGPVVe8/0.jpg","Mon Kache Dakchi Toke - ( Marudyan ) By Pota","1"
"http://peertube.net/watch.php?v=zh1AggMMXKY","01:08","24,961 views (1 local)","http://i.ytimg.com/vi/zh1AggMMXKY/0.jpg","Watch Husband Carefully mp4","1"
"http://peertube.net/watch.php?v=pwNEheuiIR4","01:20","42,707 views (1 local)","http://i.ytimg.com/vi/pwNEheuiIR4/0.jpg","HONDA CBR 250 R 2012 ARROW FULL EXHAUST + OTHER PARTS (ENGINE ON WITHOUT DB-KILLER)","1"
"http://peertube.net/watch.php?v=Sy95akOESgk","00:43","234,890 views (4 local)","http://i.ytimg.com/vi/Sy95akOESgk/0.jpg","PIKIA TOMANDO LECHE","1"
"http://peertube.net/watch.php?v=UyM0ESq8cBY","01:23","17,827 views (1 local)","http://i.ytimg.com/vi/UyM0ESq8cBY/0.jpg","Mithun wins Best Villain award @ 41st Filmfare Awards Nite","1"
"http://peertube.net/watch.php?v=WuDUZTAAmDU","01:13","90,370 views (1 local)","http://i.ytimg.com/vi/WuDUZTAAmDU/0.jpg","Wife Cheats Husband - Spends with Boy Friend","1"
"http://peertube.net/watch.php?v=XebvpPtebaI","03:59","615,023 views (1 local)","http://i.ytimg.com/vi/XebvpPtebaI/0.jpg","The Iron Maidens-The Trooper","1"
"http://peertube.net/watch.php?v=2f1mYVP1TRo","06:00","143,444 views (1 local)","http://i.ytimg.com/vi/2f1mYVP1TRo/0.jpg","Munna Bhai MBBS","1"
"http://peertube.net/watch.php?v=R9snTOBEWso","06:30","4,764 views (1 local)","http://i.ytimg.com/vi/R9snTOBEWso/0.jpg","Jadu Hai Tera - Ghulam - Aamir Khan & Rani Mukherjee","1"
"http://peertube.net/watch.php?v=HMWHEq7FDlc","05:18","19,394 views (1 local)","http://i.ytimg.com/vi/HMWHEq7FDlc/0.jpg","How To Make An Air Conditioner For Free","1"
"http://peertube.net/watch.php?v=nLaTGgyN3As","00:42","148,142 views (1 local)","http://i.ytimg.com/vi/nLaTGgyN3As/0.jpg","Pepsi Ad during cricket worldcup 2003","1"
"http://peertube.net/watch.php?v=uPjafLALZk0","03:07","25,999 views (1 local)","http://i.ytimg.com/vi/uPjafLALZk0/0.jpg",""Teri Aahatein" (Full Song) "Ek main Aur Ekk Tu" | Imran Khan, Kareena Kapoor","1"
"http://peertube.net/watch.php?v=ZbwlqTJfb58","05:47","169,269 views (1 local)","http://i.ytimg.com/vi/ZbwlqTJfb58/0.jpg","Maaneet bed scene HQ","1"
"http://peertube.net/watch.php?v=YnkV9qBrDIo","09:05","157,802 views (1 local)","http://i.ytimg.com/vi/YnkV9qBrDIo/0.jpg","choda chode","1"
"http://peertube.net/watch.php?v=_1yS2DHMIS8","01:07","14,765 views (2 local)","http://i.ytimg.com/vi/_1yS2DHMIS8/0.jpg","Gehri Chaal 1973 Hindi Movie Scene-Bindu and Prem Chopra Bed Scene","1"
"http://peertube.net/watch.php?v=4JipHEz53sU","03:39","248,230,777 views (1 local)","http://i.ytimg.com/vi/4JipHEz53sU/0.jpg","Nicki Minaj - Super Bass","1"
"http://peertube.net/watch.php?v=iOKNRAlhllM","02:24","81,267 views (1 local)","http://i.ytimg.com/vi/iOKNRAlhllM/0.jpg","Anil Kapoor, Madhuri Kissing, Beta - Scene 10/17","1"
"http://peertube.net/watch.php?v=qjwwwUKUe8s","01:47","114,901 views (1 local)","http://i.ytimg.com/vi/qjwwwUKUe8s/0.jpg","Ankita Sushant Singh Rajput Married in Real Life too?","1"
"http://peertube.net/watch.php?v=5ypv0s1QJXQ","02:35","405,241 views (1 local)","http://i.ytimg.com/vi/5ypv0s1QJXQ/0.jpg","sameera reddy hot bikini video","1"
"http://peertube.net/watch.php?v=NxlNk6lHTKU","29:13","2,865 views (1 local)","http://i.ytimg.com/vi/NxlNk6lHTKU/0.jpg","Spider 2013 DvDRIP (FULL MOVIE)","1"
"http://peertube.net/watch.php?v=9APK_ilxjlo","00:31","365 views (1 local)","http://i.ytimg.com/vi/9APK_ilxjlo/0.jpg","Kareena kapoor Navel,bare back,cleavage in Heroine","1"
"http://peertube.net/watch.php?v=_vM40-X2cvQ","08:20","379 views (1 local)","http://i.ytimg.com/vi/_vM40-X2cvQ/0.jpg","Steve Jobs FUNNIEST moments (1978-2011)","1"
"http://peertube.net/watch.php?v=vpRWFcRWX9U","02:36","650 views (3 local)","http://i.ytimg.com/vi/vpRWFcRWX9U/0.jpg","Monalisa Ass Press & Sexy Boob slowmotion","1"
"http://peertube.net/watch.php?v=X_RfntoxnVg","00:25","108 views (1 local)","http://i.ytimg.com/vi/X_RfntoxnVg/0.jpg","Rare Footage: Young Sreesanth plumbs Sachin Tendulkar","1"
"http://peertube.net/watch.php?v=uZb9oaTUNs8","01:10","13,773 views (1 local)","http://i.ytimg.com/vi/uZb9oaTUNs8/0.jpg","Text to Text Shape Tween","1"
"http://peertube.net/watch.php?v=dQtKvaKglbc","00:38","1,961 views (1 local)","http://i.ytimg.com/vi/dQtKvaKglbc/0.jpg","The Funniest Cricket Umpire In The World Who Can Beat Billy Bowden In Terms Of Humor","1"
"http://peertube.net/watch.php?v=1AmwhBjf4Cg","02:37","56,616 views (1 local)","http://i.ytimg.com/vi/1AmwhBjf4Cg/0.jpg","The Toughest Dirtiest Players Ever: Top 5","1"
"http://peertube.net/watch.php?v=ePNHBU4QuLo","08:27","18 views (1 local)","http://i.ytimg.com/vi/ePNHBU4QuLo/0.jpg","Salman Khan's Performance || Peoples Choice Awards 2012 || sallu.net || HD","1"
"http://peertube.net/watch.php?v=iH5MEAY8Yrg","00:32","170,661 views (1 local)","http://i.ytimg.com/vi/iH5MEAY8Yrg/0.jpg","Pepsi funny commercial","1"
"http://peertube.net/watch.php?v=HclgVaz_dUY","01:17","17,799 views (1 local)","http://i.ytimg.com/vi/HclgVaz_dUY/0.jpg","MAX Payne 3 Soundtrack - BIRTH OST","1"
"http://peertube.net/watch.php?v=A4Ft3UEoKMs","00:13","777 views (1 local)","http://i.ytimg.com/vi/A4Ft3UEoKMs/0.jpg","Record dance of Katuroo Nuagaon 2012 video 2.MP4","1"
"http://peertube.net/watch.php?v=1updpuTMdvI","01:19","60,827 views (1 local)","http://i.ytimg.com/vi/1updpuTMdvI/0.jpg","Parrots in Australia","1"
"http://peertube.net/watch.php?v=ruvVUS3MmYg","01:28","542 views (1 local)","http://i.ytimg.com/vi/ruvVUS3MmYg/0.jpg","Monalisa Hot kiss from a Bhojpuri Movie","1"
"http://peertube.net/watch.php?v=zWtAX9lzgdc","03:10","7,611 views (1 local)","http://i.ytimg.com/vi/zWtAX9lzgdc/0.jpg","7 Wonders of India: Lothal","1"
"http://peertube.net/watch.php?v=XU6jsiSfkn8","19:48","145 views (1 local)","http://i.ytimg.com/vi/XU6jsiSfkn8/0.jpg","Ranna Ghar October 01 '2012","1"
"http://peertube.net/watch.php?v=zi6haDMQGbo","08:55","161 views (1 local)","http://i.ytimg.com/vi/zi6haDMQGbo/0.jpg","Death sentence for Ajmal Kasab, says Supreme Court","1"
"http://peertube.net/watch.php?v=RfJxG5FzQ_I","07:44","176,133 views (1 local)","http://i.ytimg.com/vi/RfJxG5FzQ_I/0.jpg","Celebrity Side Pinned Hairstyle","1"
"http://peertube.net/watch.php?v=SB8_kKXwFV8","03:19","58,502 views (1 local)","http://i.ytimg.com/vi/SB8_kKXwFV8/0.jpg","Salman abuses another Khan!","1"
"http://peertube.net/watch.php?v=NnEmE8qanG8","04:39","13,308,401 views (1 local)","http://i.ytimg.com/vi/NnEmE8qanG8/0.jpg","David Bisbal - Esta Ausencia","1"
"http://peertube.net/watch.php?v=KqUmdAu-J4o","01:08","88,332 views (1 local)","http://i.ytimg.com/vi/KqUmdAu-J4o/0.jpg","umpire pees during cricket match-funny","1"
"http://peertube.net/watch.php?v=H7BqPEPHnck","07:39","1,119,384 views (1 local)","http://i.ytimg.com/vi/H7BqPEPHnck/0.jpg","Tsunami - Caught On Camera - P7","1"
"http://peertube.net/watch.php?v=tBM1lHujoS4","01:23","562,174 views (1 local)","http://i.ytimg.com/vi/tBM1lHujoS4/0.jpg","Dan Wheldon's Last Words before his fatal crash R.I.P Dan Wheldon","1"
"http://peertube.net/watch.php?v=6wLE_sImKhs","03:45","336,310 views (1 local)","http://i.ytimg.com/vi/6wLE_sImKhs/0.jpg","c21 - Stuck in my heart lyrics","1"
"http://peertube.net/watch.php?v=NtdVOm0SrFA","09:01","7,565 views (1 local)","http://i.ytimg.com/vi/NtdVOm0SrFA/0.jpg","Abak Prithibi - Bengali Movie - 7/10","1"
"http://peertube.net/watch.php?v=HweGQkbQ8EA","02:39","693,140 views (1 local)","http://i.ytimg.com/vi/HweGQkbQ8EA/0.jpg","Big Brother 8 UK: Ziggy & Chanelle is it ON or OFF IN or OUT","1"
"http://peertube.net/watch.php?v=rzsyJh7t_W0","04:30","1,211 views (1 local)","http://i.ytimg.com/vi/rzsyJh7t_W0/0.jpg","Amay Ektu Aral Debe Ki full song HD Charulata@2012","1"
"http://peertube.net/watch.php?v=OeNYu8RcIzg","01:14","570,331 views (1 local)","http://i.ytimg.com/vi/OeNYu8RcIzg/0.jpg","Man Caught Red-Handed Trying To Molest A Girl","1"
"http://peertube.net/watch.php?v=iRN62IebC04","04:56","273,165 views (1 local)","http://i.ytimg.com/vi/iRN62IebC04/0.jpg","Battlefield 3 Soundtrack - Main Theme","1"
"http://peertube.net/watch.php?v=wbmbGL2aXBo","01:02","14,974 views (1 local)","http://i.ytimg.com/vi/wbmbGL2aXBo/0.jpg","TAMIL NADU EXPRESS AC 2 TIER COACH A1!!!","1"
"http://peertube.net/watch.php?v=ZcW-Wx3UYZc","10:00","11,572 views (1 local)","http://i.ytimg.com/vi/ZcW-Wx3UYZc/0.jpg","Chanakya Episode 3 Part 3","1"
"http://peertube.net/watch.php?v=JzT76Vr3xSA","03:33","103 views (1 local)","http://i.ytimg.com/vi/JzT76Vr3xSA/0.jpg","Phool Koli (Awara) (2012) (Bengali)","1"
"http://peertube.net/watch.php?v=hmGS4I0XNj4","03:07","1,571,438 views (1 local)","http://i.ytimg.com/vi/hmGS4I0XNj4/0.jpg","Jhoom - Song With Opening Credits - Jhoom Barabar Jhoom","1"
"http://peertube.net/watch.php?v=XZQVrLoSw3g","01:57","600,959 views (1 local)","http://i.ytimg.com/vi/XZQVrLoSw3g/0.jpg","record dance lesp","1"
"http://peertube.net/watch.php?v=iX-8WDUo6uI","01:35","149,322 views (2 local)","http://i.ytimg.com/vi/iX-8WDUo6uI/0.jpg","angie everhart very hot hot hot :0","1"
"http://peertube.net/watch.php?v=IgFwiCApH7E","03:03","127,500,105 views (1 local)","http://i.ytimg.com/vi/IgFwiCApH7E/0.jpg","Basshunter : Now You're Gone","1"
"http://peertube.net/watch.php?v=1kp-c4GWrnA","09:58","579,545 views (1 local)","http://i.ytimg.com/vi/1kp-c4GWrnA/0.jpg","kal ho naa ho part 6","1"
"http://peertube.net/watch.php?v=xcCG06hpZA4","01:13","94,023 views (1 local)","http://i.ytimg.com/vi/xcCG06hpZA4/0.jpg","Shit Delhi Girls Say","1"
"http://peertube.net/watch.php?v=MeakR0b-gqE","03:52","702,661 views (1 local)","http://i.ytimg.com/vi/MeakR0b-gqE/0.jpg","Amateurs in Porno - Sceneta - Romanian funny short movie Romania","1"
"http://peertube.net/watch.php?v=bar_J2n9Gkk","07:20","121,337 views (1 local)","http://i.ytimg.com/vi/bar_J2n9Gkk/0.jpg","India's Got Talent Khoj (Season 2) Hot Dance Tapasya from uttaran","1"
"http://peertube.net/watch.php?v=xGkfZTqzuWY","02:48","3,651 views (1 local)","http://i.ytimg.com/vi/xGkfZTqzuWY/0.jpg","Amar Mon Kemon Kare    Chinmay Chattopadhyay","1"
"http://peertube.net/watch.php?v=_hL2_59Tuow","01:36","494,819 views (2 local)","http://i.ytimg.com/vi/_hL2_59Tuow/0.jpg","1"
"http://peertube.net/watch.php?v=cBf59yu5bPI","01:19","79,760 views (1 local)","http://i.ytimg.com/vi/cBf59yu5bPI/0.jpg","Sherlyn Chopra Latest Nude Photo Shoot And Other Bold Bollywood Actresses","1"
"http://peertube.net/watch.php?v=BQ9elY7t-Vo","01:59","172,052 views (1 local)","http://i.ytimg.com/vi/BQ9elY7t-Vo/0.jpg","Forsaken World - Cinematic Trailer - PC","1"
"http://peertube.net/watch.php?v=Jy_H5HAvpVk","01:54","845 views (1 local)","http://i.ytimg.com/vi/Jy_H5HAvpVk/0.jpg","Nikon Coolpix P510 - Super Zoom Test 42x","1"
"http://peertube.net/watch.php?v=5SIjwGdQZt8","00:19","893 views (2 local)","http://i.ytimg.com/vi/5SIjwGdQZt8/0.jpg","NIKON COOLPIX L820 1080P VIDEO SAMPLE AND FOCUS TEST","1"
"http://peertube.net/watch.php?v=rg8oTk6CRPI","04:44","301 views (1 local)","http://i.ytimg.com/vi/rg8oTk6CRPI/0.jpg","Matthew Koma - One Night","1"
"http://peertube.net/watch.php?v=DLXGQqPtAQw","03:19","56,362 views (1 local)","http://i.ytimg.com/vi/DLXGQqPtAQw/0.jpg","MAX Payne 3 Soundtrack - COMBAT DRUGS OST","1"
"http://peertube.net/watch.php?v=ZupcCTkpQms","01:51","19,250 views (1 local)","http://i.ytimg.com/vi/ZupcCTkpQms/0.jpg","MAX Payne 3 Soundtrack - THE IMPERIAL PALACE OST","1"
"http://peertube.net/watch.php?v=iof2Ce4egp8","20:05","2,720 views (1 local)","http://i.ytimg.com/vi/iof2Ce4egp8/0.jpg","Shaktimaan Episode - 224","1"
"http://peertube.net/watch.php?v=5X126kZgtFM","14:36","680 views (1 local)","http://i.ytimg.com/vi/5X126kZgtFM/0.jpg","Panasonic AG-AC160A (Unboxing ep2) - Extended Version [LuminusPD]","1"
"http://peertube.net/watch.php?v=VUt3lusQSEs","14:46","14,545 views (1 local)","http://i.ytimg.com/vi/VUt3lusQSEs/0.jpg","Chanakya Episode 3 Part 1","1"
"http://peertube.net/watch.php?v=7nCi6CMdLsA","14:46","11,093 views (1 local)","http://i.ytimg.com/vi/7nCi6CMdLsA/0.jpg","Chanakya Episode 3 Part 2","1"
"http://peertube.net/watch.php?v=M1xsoSziHiY","01:22","935 views (1 local)","http://i.ytimg.com/vi/M1xsoSziHiY/0.jpg","SEXY NAKED WOMAN GOING NUTS!!!","1"
"http://peertube.net/watch.php?v=W37QoSb6Oms","02:06","2,717 views (3 local)","http://i.ytimg.com/vi/W37QoSb6Oms/0.jpg","Gallowwalkers Official Trailer #1 (2013) - Wesley Snipes Zombie Movie HD","1"
"http://peertube.net/watch.php?v=ILliFRGJg9U","03:30","333 views (1 local)","http://i.ytimg.com/vi/ILliFRGJg9U/0.jpg","Facial tips for Men - Beauty Tips","1"
"http://peertube.net/watch.php?v=Ju0RRRlB7JM","10:42","556 views (1 local)","http://i.ytimg.com/vi/Ju0RRRlB7JM/0.jpg","Subho Muharat - Bengali Movie - 6/16","1"
"http://peertube.net/watch.php?v=8lWh0ZDxAIY","04:26","43,381 views (2 local)","http://i.ytimg.com/vi/8lWh0ZDxAIY/0.jpg","VIEJITO CALENTURIENTO","1"
"http://peertube.net/watch.php?v=Kfl5hKEVlaU","00:22","367,237 views (1 local)","http://i.ytimg.com/vi/Kfl5hKEVlaU/0.jpg","degenerado istrc","1"
"http://peertube.net/watch.php?v=4Tv1iYcmocA","02:28","219 views (1 local)","http://i.ytimg.com/vi/4Tv1iYcmocA/0.jpg","Namkeen Chat Masala - White Angel In Threesome - Mukesh Agarwal - Ashiqua - Hot C Grade Films","1"
"http://peertube.net/watch.php?v=CtThJ00Imqk","04:12","373 views (1 local)","http://i.ytimg.com/vi/CtThJ00Imqk/0.jpg","Aaj Ke Raat (Bhojpuri Hot Video Song)Feat. Vinay Anand & Sexy Rinkoo Ghosh","1"
"http://peertube.net/watch.php?v=j2xEhH0oP-E","00:26","103 views (1 local)","http://i.ytimg.com/vi/j2xEhH0oP-E/0.jpg","Canon PowerShot SX500 IS Movie Sample #3","1"
"http://peertube.net/watch.php?v=nFxiVmykQQ4","00:34","126,990 views (1 local)","http://i.ytimg.com/vi/nFxiVmykQQ4/0.jpg","US Soldier Surprises Sisters For Christmas 2011","1"
"http://peertube.net/watch.php?v=g1lDBjvAZPM","09:47","660,104 views (1 local)","http://i.ytimg.com/vi/g1lDBjvAZPM/0.jpg","kal ho naa ho part 5","1"
"http://peertube.net/watch.php?v=r9TDai-Uri8","04:27","117 views (1 local)","http://i.ytimg.com/vi/r9TDai-Uri8/0.jpg",""Aur aahista keejiye baatein" a romantic song","1"
"http://peertube.net/watch.php?v=BdlBh39gOtc","08:29","303 views (1 local)","http://i.ytimg.com/vi/BdlBh39gOtc/0.jpg","Apple iPhone 5 Unboxing","1"
"http://peertube.net/watch.php?v=BQ0iDhtCCaY","01:56","199,359 views (1 local)","http://i.ytimg.com/vi/BQ0iDhtCCaY/0.jpg","Black Palm Cockatoo","1"
"http://peertube.net/watch.php?v=A8QdQzUV0Fk","10:46","183,008 views (1 local)","http://i.ytimg.com/vi/A8QdQzUV0Fk/0.jpg","Training With Steve Cook - Bodybuilding.com","1"
"http://peertube.net/watch.php?v=NxG1uhpxqI0","02:51","1 views (1 local)","http://i.ytimg.com/vi/NxG1uhpxqI0/0.jpg","[v] SUVREEN GUGGAL ~ SCARED SUVREEN HUGS YUVRAJ TIGHTLY - 7 AUGUST 2012 SPL HD 720p","1"
"http://peertube.net/watch.php?v=jCeOb0gEEKA","03:08","1,398 views (1 local)","http://i.ytimg.com/vi/jCeOb0gEEKA/0.jpg","KHOLATEI ESHO / KabirSuman","1"
"http://peertube.net/watch.php?v=0TgYV7KOL-E","01:25","21,425 views (1 local)","http://i.ytimg.com/vi/0TgYV7KOL-E/0.jpg","Jonita Gandhi - Lag Ja Gale - Feb 12 2010","1"
"http://peertube.net/watch.php?v=lumJT6dpC6A","00:29","4,521,039 views (1 local)","http://i.ytimg.com/vi/lumJT6dpC6A/0.jpg","FUNNIEST COMMERCIAL EVER!!!!!!!!!","1"
"http://peertube.net/watch.php?v=imIkeTkAopY","00:31","463,509 views (1 local)","http://i.ytimg.com/vi/imIkeTkAopY/0.jpg","KFC "banned" advert","1"
"http://peertube.net/watch.php?v=GQLv2Iu8MSM","03:44","61,582 views (1 local)","http://i.ytimg.com/vi/GQLv2Iu8MSM/0.jpg","YouTube   Girl abusing @ IIT","1"
